<?xml version="1.0" encoding="UTF-8" standalone="no"?>
<!-- Created with Inkscape (http://www.inkscape.org/) -->

<svg
   xmlns:dc="http://purl.org/dc/elements/1.1/"
   xmlns:cc="http://creativecommons.org/ns#"
   xmlns:rdf="http://www.w3.org/1999/02/22-rdf-syntax-ns#"
   xmlns:svg="http://www.w3.org/2000/svg"
   xmlns="http://www.w3.org/2000/svg"
   xmlns:sodipodi="http://sodipodi.sourceforge.net/DTD/sodipodi-0.dtd"
   xmlns:inkscape="http://www.inkscape.org/namespaces/inkscape"
   width="210mm"
   height="297mm"
   viewBox="0 0 210 297"
   version="1.1"
   id="svg8"
   inkscape:version="0.92.3 (2405546, 2018-03-11)"
   sodipodi:docname="taylorExtIcon.svg">
  <defs
     id="defs2" />
  <sodipodi:namedview
     id="base"
     pagecolor="#ffffff"
     bordercolor="#666666"
     borderopacity="1.0"
     inkscape:pageopacity="0.0"
     inkscape:pageshadow="2"
     inkscape:zoom="3.959798"
     inkscape:cx="208.46158"
     inkscape:cy="468.37091"
     inkscape:document-units="mm"
     inkscape:current-layer="layer2"
     showgrid="false"
     inkscape:window-width="1920"
     inkscape:window-height="1017"
     inkscape:window-x="1912"
     inkscape:window-y="3"
     inkscape:window-maximized="1"
     inkscape:snap-global="false"
     showguides="false" />
  <metadata
     id="metadata5">
    <rdf:RDF>
      <cc:Work
         rdf:about="">
        <dc:format>image/svg+xml</dc:format>
        <dc:type
           rdf:resource="http://purl.org/dc/dcmitype/StillImage" />
        <dc:title></dc:title>
      </cc:Work>
    </rdf:RDF>
  </metadata>
  <g
     inkscape:groupmode="layer"
     id="layer2"
     inkscape:label="Background"
     style="display:none">
    <rect
       inkscape:export-ydpi="171.3"
       inkscape:export-xdpi="171.3"
       y="156.78909"
       x="24.350655"
       height="37.95974"
       width="37.95974"
       id="rect1035"
       style="opacity:1;fill:#f4d7d7;fill-opacity:1;stroke:none;stroke-width:8.46666622;stroke-miterlimit:4;stroke-dasharray:none;stroke-opacity:1" />
    <rect
       style="opacity:1;fill:#f4d7d7;fill-opacity:1;stroke:none;stroke-width:8.46666622;stroke-miterlimit:4;stroke-dasharray:none;stroke-opacity:1"
       id="rect939"
       width="29.139849"
       height="29.139849"
       x="102.9613"
       y="107.50589"
       inkscape:export-xdpi="223.14"
       inkscape:export-ydpi="223.14" />
    <path
       inkscape:connector-curvature="0"
       id="path1002"
       d="m 42.808594,158.08164 c -2.604291,0.45905 -1.392569,4.35144 -4.608629,3.40381 -4.60213,1.34385 -10.13846,-0.47327 -14.190199,2.1333 -2.474374,3.98253 3.40981,7.43351 6.794922,5.46094 3.304666,-0.63612 7.195901,-1.37146 10.271484,-1.44531 0.708237,8.92363 -0.47257,18.09189 0.246094,26.89062 2.498955,3.70135 7.806535,-0.3521 6.517578,-4.11133 0.27136,-7.97522 0.06719,-15.95727 -0.191406,-23.92969 4.246183,-1.1789 8.702134,-0.002 12.794921,-0.43359 3.94569,-2.32498 0.58216,-7.9272 -3.439453,-6.96875 -3.432234,-0.44297 -7.691602,1.66289 -10.488281,0.61914 -0.856924,-1.09795 -2.310579,-1.76986 -3.707031,-1.61914 z"
       style="font-style:normal;font-variant:normal;font-weight:normal;font-stretch:normal;font-size:50.79999924px;line-height:10;font-family:'Ink Free';-inkscape-font-specification:'Ink Free';letter-spacing:0px;word-spacing:0px;fill:#55ff55;fill-opacity:1;stroke:none;stroke-width:0.26458332" />
  </g>
  <g
     inkscape:label="Layer 1"
     inkscape:groupmode="layer"
     id="layer1">
    <path
       id="path1031"
       d="m 33.874419,158.12833 c -2.146978,0 -3.875218,1.72824 -3.875218,3.87522 v 0.62786 c 2.742883,-0.10342 5.618615,0.13692 8.200533,-0.61701 3.216061,0.94763 2.004732,-2.94436 4.609023,-3.40341 1.39645,-0.15072 2.849825,0.52107 3.706749,1.61902 2.786224,1.03985 7.02396,-1.04562 10.449491,-0.62322 -0.0058,-0.25221 -0.02864,-0.55041 -0.02864,-0.55041 0,0 -2.396906,-0.92805 -3.016654,-0.92805 z m 18.609198,8.34316 c -1.621102,-0.0114 -3.243045,0.0995 -4.835363,0.54157 0.204366,6.30054 0.371192,12.60706 0.299722,18.91151 h 5.971731 c 2.146974,0 3.875214,-1.72876 3.875214,-3.87574 v -15.3758 c -1.742879,-0.0299 -3.526361,-0.18896 -5.311304,-0.20154 z m -11.407571,1.69189 c -3.075583,0.0739 -6.966543,0.80927 -10.271209,1.44539 -0.255421,0.14884 -0.526421,0.26324 -0.805636,0.35243 v 12.08763 c 0,2.14698 1.72824,3.87574 3.875218,3.87574 h 7.226948 c 0.09036,-5.90976 0.44079,-11.88828 -0.02532,-17.76119 z"
       style="opacity:1;fill:#002255;fill-opacity:1;stroke:none;stroke-width:8.46666622;stroke-miterlimit:4;stroke-dasharray:none;stroke-opacity:1"
       inkscape:connector-curvature="0"
       sodipodi:nodetypes="ssccccccsscccsscccccsscc" />
    <rect
       rx="3.8754082"
       ry="3.8754082"
       y="108.76469"
       x="29.394278"
       height="27.796032"
       width="27.796032"
       id="rect827"
       style="opacity:1;fill:#782121;fill-opacity:1;stroke:none;stroke-width:8.46666622;stroke-miterlimit:4;stroke-dasharray:none;stroke-opacity:1" />
    <g
       id="g865">
      <rect
         rx="3.8754082"
         ry="3.8754082"
         y="107.70635"
         x="28.86511"
         height="27.796032"
         width="27.796032"
         id="rect825"
         style="opacity:1;fill:#c83737;fill-opacity:1;stroke:none;stroke-width:8.46666622;stroke-miterlimit:4;stroke-dasharray:none;stroke-opacity:1" />
      <path
         id="path849"
         transform="scale(0.26458333)"
         d="M 155.04297 407.08008 C 153.59766 410.6695 151.81445 414.27671 149.5 417.87695 C 142.64057 428.54719 126.70939 431.03613 109.0957 433.86719 L 109.0957 497.48828 C 109.0957 505.60284 115.62959 512.13477 123.74414 512.13477 L 199.50586 512.13477 C 207.62041 512.13477 214.15234 505.60284 214.15234 497.48828 L 214.15234 421.72656 C 214.15234 413.61201 207.62041 407.08008 199.50586 407.08008 L 155.04297 407.08008 z "
         style="fill:#d35f5f;fill-opacity:0.37878789;stroke:none;stroke-width:0.99999994px;stroke-linecap:butt;stroke-linejoin:miter;stroke-opacity:1" />
      <path
         id="path829"
         transform="scale(0.26458333)"
         d="M 191.36133 407.08008 C 187.54841 419.79008 186.49211 433.88924 177.5 447.87695 C 167.04819 464.13534 135.60571 461.37262 109.0957 469.82227 L 109.0957 497.48828 C 109.0957 505.60284 115.62959 512.13477 123.74414 512.13477 L 199.50586 512.13477 C 207.62041 512.13477 214.15234 505.60284 214.15234 497.48828 L 214.15234 421.72656 C 214.15234 413.61201 207.62041 407.08008 199.50586 407.08008 L 191.36133 407.08008 z "
         style="fill:#d35f5f;fill-opacity:0.37878788;stroke:none;stroke-width:0.99999994px;stroke-linecap:butt;stroke-linejoin:miter;stroke-opacity:1" />
      <path
         id="path844"
         transform="scale(0.26458333)"
         d="M 214.15234 457.6582 C 211.35019 468.91145 209.48829 481.03558 201.74414 493.08203 C 192.71476 507.12775 168.02025 506.98785 144.37305 512.13477 L 199.50586 512.13477 C 207.62041 512.13477 214.15234 505.60284 214.15234 497.48828 L 214.15234 457.6582 z "
         style="fill:#d35f5f;fill-opacity:0.37878789;stroke:none;stroke-width:0.99999994px;stroke-linecap:butt;stroke-linejoin:miter;stroke-opacity:1" />
    </g>
    <g
       id="g859">
      <text
         id="text817"
         y="129.95654"
         x="29.934189"
         style="font-style:normal;font-weight:normal;font-size:1.41111112px;line-height:1.25;font-family:sans-serif;letter-spacing:0px;word-spacing:0px;fill:#ffffff;fill-opacity:1;stroke:none;stroke-width:0.26458332;"
         xml:space="preserve"><tspan
           style="line-height:10;stroke-width:0.26458332;font-size:25.4px;-inkscape-font-specification:'Ink Free';font-family:'Ink Free';font-weight:normal;font-style:normal;font-stretch:normal;font-variant:normal;fill:#ffffff;"
           y="129.95654"
           x="29.934189"
           id="tspan815"
           sodipodi:role="line">T</tspan></text>
      <text
         id="text821"
         y="129.26823"
         x="42.767056"
         style="font-style:normal;font-weight:normal;font-size:1.41111112px;line-height:1.25;font-family:sans-serif;letter-spacing:0px;word-spacing:0px;fill:#ffffff;fill-opacity:1;stroke:none;stroke-width:0.26458332;"
         xml:space="preserve"><tspan
           style="font-style:normal;font-variant:normal;font-weight:normal;font-stretch:normal;font-size:8.46666622px;font-family:'Ink Free';-inkscape-font-specification:'Ink Free';stroke-width:0.26458332;fill:#ffffff;"
           y="129.26823"
           x="42.767056"
           id="tspan819"
           sodipodi:role="line">ext</tspan></text>
      <circle
         r="0.53453904"
         cy="129.0545"
         cx="41.694046"
         id="path823"
         style="opacity:1;fill:#ffffff;fill-opacity:1;stroke:none;stroke-width:8.46666622;stroke-miterlimit:4;stroke-dasharray:none;stroke-opacity:1" />
    </g>
    <rect
       style="opacity:1;fill:#782121;fill-opacity:1;stroke:none;stroke-width:8.46666622;stroke-miterlimit:4;stroke-dasharray:none;stroke-opacity:1"
       id="rect867"
       width="27.796032"
       height="27.796032"
       x="69.459755"
       y="108.76469"
       ry="3.8754082"
       rx="3.8754082" />
    <g
       id="g877"
       transform="translate(40.065476)">
      <rect
         style="opacity:1;fill:#c83737;fill-opacity:1;stroke:none;stroke-width:8.46666622;stroke-miterlimit:4;stroke-dasharray:none;stroke-opacity:1"
         id="rect869"
         width="27.796032"
         height="27.796032"
         x="28.86511"
         y="107.70635"
         ry="3.8754082"
         rx="3.8754082" />
      <path
         style="fill:#d35f5f;fill-opacity:0.37878789;stroke:none;stroke-width:0.99999994px;stroke-linecap:butt;stroke-linejoin:miter;stroke-opacity:1"
         d="m 155.04297,407.08008 c -1.44531,3.58942 -3.22852,7.19663 -5.54297,10.79687 -6.85943,10.67024 -22.79061,13.15918 -40.4043,15.99024 v 63.62109 c 0,8.11456 6.53389,14.64649 14.64844,14.64649 h 75.76172 c 8.11455,0 14.64648,-6.53193 14.64648,-14.64649 v -75.76172 c 0,-8.11455 -6.53193,-14.64648 -14.64648,-14.64648 z"
         transform="scale(0.26458333)"
         id="path871"
         inkscape:connector-curvature="0" />
      <path
         style="fill:#d35f5f;fill-opacity:0.37878789;stroke:none;stroke-width:0.99999994px;stroke-linecap:butt;stroke-linejoin:miter;stroke-opacity:1"
         d="m 191.36133,407.08008 c -3.81292,12.71 -4.86922,26.80916 -13.86133,40.79687 -10.45181,16.25839 -41.89429,13.49567 -68.4043,21.94532 v 27.66601 c 0,8.11456 6.53389,14.64649 14.64844,14.64649 h 75.76172 c 8.11455,0 14.64648,-6.53193 14.64648,-14.64649 v -75.76172 c 0,-8.11455 -6.53193,-14.64648 -14.64648,-14.64648 z"
         transform="scale(0.26458333)"
         id="path873"
         inkscape:connector-curvature="0" />
      <path
         style="fill:#d35f5f;fill-opacity:0.37878789;stroke:none;stroke-width:0.99999994px;stroke-linecap:butt;stroke-linejoin:miter;stroke-opacity:1"
         d="m 214.15234,457.6582 c -2.80215,11.25325 -4.66405,23.37738 -12.4082,35.42383 -9.02938,14.04572 -33.72389,13.90582 -57.37109,19.05274 h 55.13281 c 8.11455,0 14.64648,-6.53193 14.64648,-14.64649 z"
         transform="scale(0.26458333)"
         id="path875"
         inkscape:connector-curvature="0" />
    </g>
    <text
       id="text881"
       y="124.69411"
       x="69.771172"
       style="font-style:normal;font-weight:normal;font-size:1.41111112px;line-height:1.25;font-family:sans-serif;letter-spacing:0px;word-spacing:0px;fill:#ffffff;fill-opacity:1;stroke:none;stroke-width:0.26458332"
       xml:space="preserve"><tspan
         style="font-style:normal;font-variant:normal;font-weight:normal;font-stretch:normal;font-size:22.57777786px;line-height:10;font-family:'Ink Free';-inkscape-font-specification:'Ink Free';fill:#ffffff;stroke-width:0.26458332"
         y="124.69411"
         x="69.771172"
         id="tspan879"
         sodipodi:role="line">T</tspan></text>
    <text
       id="text885"
       y="131.40639"
       x="78.12191"
       style="font-style:normal;font-weight:normal;font-size:1.41111112px;line-height:1.25;font-family:sans-serif;letter-spacing:0px;word-spacing:0px;fill:#ffffff;fill-opacity:1;stroke:none;stroke-width:0.26458332"
       xml:space="preserve"><tspan
         style="font-style:normal;font-variant:normal;font-weight:normal;font-stretch:normal;font-size:8.46666622px;font-family:'Ink Free';-inkscape-font-specification:'Ink Free';fill:#ffffff;stroke-width:0.26458332"
         y="131.40639"
         x="78.12191"
         id="tspan883"
         sodipodi:role="line">ext</tspan></text>
    <text
       xml:space="preserve"
       style="font-style:normal;font-weight:normal;font-size:1.41111112px;line-height:1.25;font-family:sans-serif;letter-spacing:0px;word-spacing:0px;fill:#ffffff;fill-opacity:1;stroke:none;stroke-width:0.26458332"
       x="79.518524"
       y="119.83111"
       id="text898"><tspan
         sodipodi:role="line"
         id="tspan896"
         x="79.518524"
         y="119.83111"
         style="font-style:normal;font-variant:normal;font-weight:normal;font-stretch:normal;font-size:8.46666622px;font-family:'Ink Free';-inkscape-font-specification:'Ink Free';fill:#ffffff;stroke-width:0.26458332">aylor</tspan></text>
    <rect
       rx="3.8754082"
       ry="3.8754082"
       y="108.76469"
       x="103.85559"
       height="27.796032"
       width="27.796032"
       id="rect900"
       style="opacity:1;fill:#782121;fill-opacity:1;stroke:none;stroke-width:8.46666622;stroke-miterlimit:4;stroke-dasharray:none;stroke-opacity:1" />
    <rect
       style="opacity:1;fill:#c83737;fill-opacity:1;stroke:none;stroke-width:8.46666622;stroke-miterlimit:4;stroke-dasharray:none;stroke-opacity:1"
       id="rect902"
       width="27.796032"
       height="27.796032"
       x="103.32642"
       y="107.70635"
       ry="3.8754082"
       rx="3.8754082" />
    <path
       style="fill:#a02c2c;fill-opacity:0.37878789;stroke:none;stroke-width:0.26458332px;stroke-linecap:butt;stroke-linejoin:miter;stroke-opacity:1"
       d="m 115.48309,107.7066 c -0.3824,0.9497 -0.85421,1.90411 -1.46657,2.85667 -1.81489,2.82317 -6.03002,3.4817 -10.69031,4.23076 v 16.83308 c 0,2.14697 1.72876,3.87521 3.87574,3.87521 h 20.04528 c 2.14698,0 3.87522,-1.72824 3.87522,-3.87521 v -20.04529 c 0,-2.14698 -1.72824,-3.87522 -3.87522,-3.87522 z"
       id="path904"
       inkscape:connector-curvature="0" />
    <path
       style="fill:#e9afaf;fill-opacity:0.15151516;stroke:none;stroke-width:0.26458332px;stroke-linecap:butt;stroke-linejoin:miter;stroke-opacity:1"
       d="m 125.09233,107.7066 c -1.00884,3.36286 -1.28832,7.09326 -3.66748,10.79417 -2.76537,4.3017 -11.08453,3.57073 -18.09864,5.80637 v 7.31997 c 0,2.14697 1.72876,3.87521 3.87574,3.87521 h 20.04528 c 2.14698,0 3.87522,-1.72824 3.87522,-3.87521 v -20.04529 c 0,-2.14698 -1.72824,-3.87522 -3.87522,-3.87522 z"
       id="path906"
       inkscape:connector-curvature="0" />
    <path
       style="fill:#a02c2c;fill-opacity:0.37878789;stroke:none;stroke-width:0.26458332px;stroke-linecap:butt;stroke-linejoin:miter;stroke-opacity:1"
       d="m 131.12245,121.08873 c -0.7414,2.97742 -1.23403,6.18527 -3.283,9.37256 -2.38903,3.71626 -8.92278,3.67924 -15.17944,5.04103 h 14.58722 c 2.14698,0 3.87522,-1.72824 3.87522,-3.87521 z"
       id="path908"
       inkscape:connector-curvature="0" />
    <text
       xml:space="preserve"
       style="font-style:normal;font-weight:normal;font-size:1.41111112px;line-height:1.25;font-family:sans-serif;letter-spacing:0px;word-spacing:0px;fill:#e9afaf;fill-opacity:1;stroke:none;stroke-width:0.26458332;"
       x="111.31665"
       y="132.21098"
       id="text918"><tspan
         sodipodi:role="line"
         id="tspan916"
         x="111.31665"
         y="132.21098"
         style="font-style:normal;font-variant:normal;font-weight:normal;font-stretch:normal;font-size:8.46666622px;font-family:'Ink Free';-inkscape-font-specification:'Ink Free';fill:#e9afaf;stroke-width:0.26458332;">ext</tspan></text>
    <text
       xml:space="preserve"
       style="font-style:normal;font-weight:normal;font-size:1.41111112px;line-height:1.25;font-family:sans-serif;letter-spacing:0px;word-spacing:0px;fill:#ffd5d5;fill-opacity:1;stroke:none;stroke-width:0.26458332;"
       x="103.91864"
       y="125.75244"
       id="text914"><tspan
         sodipodi:role="line"
         id="tspan912"
         x="103.91864"
         y="125.75244"
         style="font-style:normal;font-variant:normal;font-weight:normal;font-stretch:normal;font-size:22.57777786px;line-height:10;font-family:'Ink Free';-inkscape-font-specification:'Ink Free';fill:#ffd5d5;stroke-width:0.26458332;">T</tspan></text>
    <text
       id="text922"
       y="120.88944"
       x="113.73281"
       style="font-style:normal;font-weight:normal;font-size:1.41111112px;line-height:1.25;font-family:sans-serif;letter-spacing:0px;word-spacing:0px;fill:#ffd5d5;fill-opacity:1;stroke:none;stroke-width:0.26458332;"
       xml:space="preserve"><tspan
         style="font-style:normal;font-variant:normal;font-weight:normal;font-stretch:normal;font-size:8.46666622px;font-family:'Ink Free';-inkscape-font-specification:'Ink Free';fill:#ffd5d5;stroke-width:0.26458332;"
         y="120.88944"
         x="113.73281"
         id="tspan920"
         sodipodi:role="line">aylor</tspan></text>
    <path
       style="opacity:1;fill:#5599ff;fill-opacity:1;stroke:none;stroke-width:31.99999809;stroke-miterlimit:4;stroke-dasharray:none;stroke-opacity:1"
       d="M 128.0293 595.65039 C 119.91474 595.65039 113.38281 602.18232 113.38281 610.29688 L 113.38281 612.66992 C 123.74961 612.27902 134.61852 613.18741 144.37695 610.33789 C 156.53214 613.91948 151.95389 599.2096 161.79688 597.47461 C 167.0748 596.90496 172.56787 599.44402 175.80664 603.59375 C 186.33725 607.52388 202.35389 599.64178 215.30078 601.23828 C 212.6232 597.83623 208.47573 595.65039 203.79102 595.65039 L 128.0293 595.65039 z M 198.36328 627.18359 C 192.23628 627.14041 186.1061 627.55959 180.08789 629.23047 C 180.8603 653.04353 181.49082 676.87922 181.2207 700.70703 L 203.79102 700.70703 C 211.90557 700.70703 218.4375 694.17315 218.4375 686.05859 L 218.4375 627.94531 C 211.85024 627.83234 205.10952 627.23115 198.36328 627.18359 z M 155.24805 633.57812 C 143.6238 633.85724 128.91781 636.63678 116.42773 639.04102 C 115.46236 639.60356 114.43811 640.03597 113.38281 640.37305 L 113.38281 686.05859 C 113.38281 694.17315 119.91474 700.70703 128.0293 700.70703 L 155.34375 700.70703 C 155.68527 678.37096 157.00973 655.77495 155.24805 633.57812 z "
       id="rect1011"
       transform="scale(0.26458333)" />
    <path
       style="fill:#aaccff;fill-opacity:0.37878789;stroke:none;stroke-width:0.99999994px;stroke-linecap:butt;stroke-linejoin:miter;stroke-opacity:1"
       d="M 159.32812 595.65234 C 158.79504 596.97625 158.19722 598.3014 157.5625 599.62891 C 158.6014 598.59003 159.94255 597.80147 161.79688 597.47461 C 167.0748 596.90496 172.56787 599.44402 175.80664 603.59375 C 186.33725 607.52388 202.35389 599.64178 215.30078 601.23828 C 212.6234 597.83644 208.47573 595.65234 203.79102 595.65234 L 159.32812 595.65234 z M 153.41016 606.99805 C 152.62265 608.13783 151.73142 609.18305 150.73828 610.14062 C 151.9129 609.43922 152.72043 608.30728 153.41016 606.99805 z M 198.36328 627.18359 C 192.23628 627.14041 186.1061 627.55959 180.08789 629.23047 C 180.8603 653.04353 181.49082 676.87922 181.2207 700.70703 L 203.79102 700.70703 C 211.90557 700.70703 218.4375 694.17512 218.4375 686.06055 L 218.4375 627.94531 C 211.85024 627.83234 205.10952 627.23115 198.36328 627.18359 z M 155.24805 633.57812 C 143.6238 633.85724 128.91781 636.63678 116.42773 639.04102 C 115.46182 639.60387 114.43679 640.03591 113.38086 640.37305 L 113.38086 686.06055 C 113.38086 694.17512 119.91475 700.70703 128.0293 700.70703 L 155.34375 700.70703 C 155.68527 678.37096 157.00973 655.77495 155.24805 633.57812 z "
       transform="scale(0.26458333)"
       id="path946" />
    <path
       style="fill:#aaccff;fill-opacity:0.37878789;stroke:none;stroke-width:0.99999994px;stroke-linecap:butt;stroke-linejoin:miter;stroke-opacity:1"
       d="M 195.64648 595.65234 C 194.88107 598.20376 194.23521 600.82337 193.60547 603.47461 C 200.85966 602.16762 208.50087 600.39978 215.30078 601.23828 C 212.6234 597.83644 208.47573 595.65234 203.79102 595.65234 L 195.64648 595.65234 z M 198.36328 627.18359 C 194.35326 627.15533 190.34361 627.33091 186.36328 627.91992 C 185.10162 630.75918 183.61258 633.60657 181.78516 636.44922 C 181.34957 637.12679 180.866 637.75936 180.35938 638.37305 C 180.99308 659.14408 181.45626 679.92776 181.2207 700.70703 L 203.79102 700.70703 C 211.90557 700.70703 218.4375 694.17512 218.4375 686.06055 L 218.4375 627.94531 C 211.85024 627.83234 205.10952 627.23115 198.36328 627.18359 z M 156.0293 649.8457 C 143.0211 652.55745 127.51267 653.89023 113.38086 658.39453 L 113.38086 686.06055 C 113.38086 694.17512 119.91475 700.70703 128.0293 700.70703 L 155.34375 700.70703 C 155.60217 683.80596 156.40642 666.75923 156.0293 649.8457 z "
       transform="scale(0.26458333)"
       id="path948" />
    <path
       style="fill:#aaccff;fill-opacity:0.37878789;stroke:none;stroke-width:0.99999994px;stroke-linecap:butt;stroke-linejoin:miter;stroke-opacity:1"
       d="M 218.4375 646.23047 C 215.63535 657.48371 213.77345 669.60785 206.0293 681.6543 C 201.29149 689.02425 192.22278 692.47781 181.27344 694.84961 C 181.26315 696.80214 181.24284 698.75459 181.2207 700.70703 L 203.79102 700.70703 C 211.90557 700.70703 218.4375 694.17512 218.4375 686.06055 L 218.4375 646.23047 z M 155.36523 699.38477 C 153.1294 699.79262 150.88942 700.2214 148.6582 700.70703 L 155.34375 700.70703 C 155.35049 700.26625 155.35776 699.82574 155.36523 699.38477 z "
       transform="scale(0.26458333)"
       id="path950" />
    <text
       xml:space="preserve"
       style="font-style:normal;font-weight:normal;font-size:1.41111112px;line-height:1.25;font-family:sans-serif;letter-spacing:0px;word-spacing:0px;fill:#217844;fill-opacity:1;stroke:none;stroke-width:0.26458332;"
       x="25.398474"
       y="194.72275"
       id="text993"><tspan
         sodipodi:role="line"
         id="tspan991"
         x="25.398474"
         y="194.72275"
         style="font-style:normal;font-variant:normal;font-weight:normal;font-stretch:normal;font-size:50.79999924px;line-height:10;font-family:'Ink Free';-inkscape-font-specification:'Ink Free';fill:#217844;fill-opacity:1;stroke-width:0.26458332;">T</tspan></text>
    <text
       id="text956"
       y="194.19359"
       x="25.398474"
       style="font-style:normal;font-weight:normal;font-size:1.41111112px;line-height:1.25;font-family:sans-serif;letter-spacing:0px;word-spacing:0px;fill:#87deaa;fill-opacity:1;stroke:none;stroke-width:0.26458332"
       xml:space="preserve"><tspan
         style="font-style:normal;font-variant:normal;font-weight:normal;font-stretch:normal;font-size:50.79999924px;line-height:10;font-family:'Ink Free';-inkscape-font-specification:'Ink Free';fill:#87deaa;fill-opacity:1;stroke-width:0.26458332"
         y="194.19359"
         x="25.398474"
         id="tspan954"
         sodipodi:role="line">T</tspan></text>
  </g>
</svg>
